threshold,tp,tn,fp,fn,accuracy,precision,recall(tpr),fpr
0.5,15480,25735291,385715,25275,0.98429,0.0385847,0.379831,0.0147665
0.51,14300,25812461,308545,26455,0.987195,0.0442937,0.350877,0.0118121
0.52,13207,25876764,244242,27548,0.989611,0.0512995,0.324058,0.00935041
0.53,12143,25929894,191112,28612,0.991601,0.0597427,0.297951,0.00731641
0.54,11103,25973148,147858,29652,0.993215,0.0698473,0.272433,0.0056605
0.55,10126,26007868,113138,30629,0.994505,0.0821489,0.24846,0.0043313
0.56,9094,26035652,85354,31661,0.995527,0.0962858,0.223138,0.00326764
0.57,8165,26057319,63687,32590,0.99632,0.113636,0.200344,0.00243815
0.58,7323,26074064,46942,33432,0.996928,0.134949,0.179683,0.0017971
0.59,6517,26086830,34176,34238,0.997385,0.16015,0.159907,0.00130837
0.6,5713,26096721,24285,35042,0.997732,0.190446,0.140179,0.000929712
0.61,5015,26103917,17089,35740,0.997981,0.226882,0.123052,0.000654224
0.62,4423,26109266,11740,36332,0.998163,0.27365,0.108527,0.000449447
0.63,3835,26113080,7926,36920,0.998286,0.326078,0.0940989,0.000303434
0.64,3296,26115723,5283,37459,0.998366,0.384194,0.0808735,0.000202251
0.65,2792,26117624,3382,37963,0.99842,0.452219,0.0685069,0.000129474
0.66,2309,26118862,2144,38446,0.998448,0.518527,0.0566556,8.20795e-05
0.67,1919,26119680,1326,38836,0.998465,0.591371,0.0470862,5.07637e-05
0.68,1573,26120175,831,39182,0.998471,0.654326,0.0385965,3.18135e-05
0.69,1275,26120499,507,39480,0.998472,0.715488,0.0312845,1.94097e-05
0.7,1041,26120727,279,39714,0.998471,0.788636,0.0255429,1.06811e-05
0.71,810,26120857,149,39945,0.998467,0.84463,0.0198749,5.70422e-06
0.72,630,26120931,75,40125,0.998463,0.893617,0.0154582,2.87125e-06
0.73,513,26120968,38,40242,0.99846,0.931034,0.0125874,1.45477e-06
0.74,397,26120987,19,40358,0.998457,0.954327,0.00974114,7.27384e-07
0.75,294,26120998,8,40461,0.998453,0.97351,0.00721384,3.06267e-07
0.76,204,26121003,3,40551,0.99845,0.985507,0.00500552,1.1485e-07
0.77,149,26121004,2,40606,0.998448,0.986755,0.00365599,7.65667e-08
0.78,105,26121004,2,40650,0.998446,0.981308,0.00257637,7.65667e-08
0.79,80,26121004,2,40675,0.998445,0.97561,0.00196295,7.65667e-08
0.8,57,26121004,2,40698,0.998444,0.966102,0.0013986,7.65667e-08
0.81,38,26121004,2,40717,0.998444,0.95,0.000932401,7.65667e-08
0.82,29,26121004,2,40726,0.998443,0.935484,0.000711569,7.65667e-08
0.83,20,26121004,2,40735,0.998443,0.909091,0.000490737,7.65667e-08
0.84,15,26121004,2,40740,0.998443,0.882353,0.000368053,7.65667e-08
0.85,11,26121004,2,40744,0.998443,0.846154,0.000269906,7.65667e-08
0.86,8,26121004,2,40747,0.998442,0.8,0.000196295,7.65667e-08
0.87,8,26121004,2,40747,0.998442,0.8,0.000196295,7.65667e-08
0.88,6,26121004,2,40749,0.998442,0.75,0.000147221,7.65667e-08
0.89,5,26121005,1,40750,0.998442,0.833333,0.000122684,3.82834e-08
0.9,5,26121005,1,40750,0.998442,0.833333,0.000122684,3.82834e-08
0.91,3,26121005,1,40752,0.998442,0.75,7.36106e-05,3.82834e-08
0.92,3,26121005,1,40752,0.998442,0.75,7.36106e-05,3.82834e-08
0.93,2,26121005,1,40753,0.998442,0.666667,4.90737e-05,3.82834e-08
0.94,2,26121005,1,40753,0.998442,0.666667,4.90737e-05,3.82834e-08
0.95,1,26121005,1,40754,0.998442,0.5,2.45369e-05,3.82834e-08
0.96,1,26121005,1,40754,0.998442,0.5,2.45369e-05,3.82834e-08
0.97,1,26121005,1,40754,0.998442,0.5,2.45369e-05,3.82834e-08
0.98,0,26121005,1,40755,0.998442,0.0,0.0,3.82834e-08
0.99,0,26121005,1,40755,0.998442,0.0,0.0,3.82834e-08